%YAML 1.1
%TAG !u! tag:unity3d.com,2011:
--- !u!1045 &1
EditorBuildSettings:
  m_ObjectHideFlags: 0
  serializedVersion: 2
  m_Scenes:
  - enabled: 1
    path: Assets/Scenes/Scene1.unity
    guid: c4809f393954d52478b3d34ec178519f
  - enabled: 1
    path: Assets/Scenes/Scene2.unity
    guid: 9fc0d4010bbf28b4594072e72b8655ab
  m_configObjects: {}
